%YAML 1.1
%TAG !u! tag:unity3d.com,2011:
--- !u!74 &7400000
AnimationClip:
  m_ObjectHideFlags: 0
  m_PrefabParentObject: {fileID: 0}
  m_PrefabInternal: {fileID: 0}
  m_Name: Cat_Squat
  serializedVersion: 4
  m_AnimationType: 2
  m_Compressed: 0
  m_UseHighQualityCurve: 1
  m_RotationCurves: []
  m_CompressedRotationCurves: []
  m_PositionCurves: []
  m_ScaleCurves: []
  m_FloatCurves: []
  m_PPtrCurves:
  - curve:
    - time: -0
      value: {fileID: 21300000, guid: c161fcf6002071d45a05636b22d06936, type: 3}
    - time: .0416666679
      value: {fileID: 21300000, guid: 873067a226b323b4386da55017d21744, type: 3}
    - time: .0833333358
      value: {fileID: 21300000, guid: d0b137990a08a214aa3d6e3430f3955b, type: 3}
    - time: .125
      value: {fileID: 21300000, guid: fad5c0bf9a686014681cb486c1d8a1c5, type: 3}
    - time: .166666672
      value: {fileID: 21300000, guid: c7968fb47455b174983df6585839f728, type: 3}
    - time: .208333328
      value: {fileID: 21300000, guid: 8772481e38e85114ba6cc75b258e7f00, type: 3}
    - time: .25
      value: {fileID: 21300000, guid: b5960162292f63f44937afeac4757c3d, type: 3}
    - time: .291666657
      value: {fileID: 21300000, guid: fe4109e21f1cd6c44a7b6f5b01bd3cb7, type: 3}
    - time: .333333343
      value: {fileID: 21300000, guid: 8acaa9f905097da41adfca72c52a36ad, type: 3}
    - time: .375
      value: {fileID: 21300000, guid: 8acaa9f905097da41adfca72c52a36ad, type: 3}
    - time: .416666657
      value: {fileID: 21300000, guid: 8acaa9f905097da41adfca72c52a36ad, type: 3}
    attribute: m_Sprite
    path: 
    classID: 212
    script: {fileID: 0}
  m_SampleRate: 24
  m_WrapMode: 0
  m_Bounds:
    m_Center: {x: 0, y: 0, z: 0}
    m_Extent: {x: 0, y: 0, z: 0}
  m_ClipBindingConstant:
    genericBindings:
    - path: 0
      attribute: 0
      script: {fileID: 0}
      classID: 212
      customType: 23
      isPPtrCurve: 1
    pptrCurveMapping:
    - {fileID: 21300000, guid: c161fcf6002071d45a05636b22d06936, type: 3}
    - {fileID: 21300000, guid: 873067a226b323b4386da55017d21744, type: 3}
    - {fileID: 21300000, guid: d0b137990a08a214aa3d6e3430f3955b, type: 3}
    - {fileID: 21300000, guid: fad5c0bf9a686014681cb486c1d8a1c5, type: 3}
    - {fileID: 21300000, guid: c7968fb47455b174983df6585839f728, type: 3}
    - {fileID: 21300000, guid: 8772481e38e85114ba6cc75b258e7f00, type: 3}
    - {fileID: 21300000, guid: b5960162292f63f44937afeac4757c3d, type: 3}
    - {fileID: 21300000, guid: fe4109e21f1cd6c44a7b6f5b01bd3cb7, type: 3}
    - {fileID: 21300000, guid: 8acaa9f905097da41adfca72c52a36ad, type: 3}
    - {fileID: 21300000, guid: 8acaa9f905097da41adfca72c52a36ad, type: 3}
    - {fileID: 21300000, guid: 8acaa9f905097da41adfca72c52a36ad, type: 3}
  m_AnimationClipSettings:
    serializedVersion: 2
    m_StartTime: 0
    m_StopTime: .458333313
    m_OrientationOffsetY: 0
    m_Level: 0
    m_CycleOffset: 0
    m_LoopTime: 0
    m_LoopBlend: 0
    m_LoopBlendOrientation: 0
    m_LoopBlendPositionY: 0
    m_LoopBlendPositionXZ: 0
    m_KeepOriginalOrientation: 0
    m_KeepOriginalPositionY: 1
    m_KeepOriginalPositionXZ: 0
    m_HeightFromFeet: 0
    m_Mirror: 0
  m_EditorCurves: []
  m_EulerEditorCurves: []
  m_Events: []
